[{
	"regions": [],
	"name": "Muisne",
	"longitude": -80.0333023071289,
	"country": "ec",
	"latitude": 0.600000023841858,
	"updated_at": "2014-09-22T21:24:51.562119Z",
	"code": "238d8",
	"parent": null
},
{
	"regions": [],
	"name": "El Guabo",
	"longitude": -79.828205,
	"country": "ec",
	"latitude": -3.239239,
	"updated_at": "2014-09-22T21:45:47.086861Z",
	"code": "236d0",
	"parent": null
},
{
	"regions": [],
	"name": "Mashpi",
	"longitude": -78.808794,
	"country": "ec",
	"latitude": 0.179042,
	"updated_at": "2014-09-22T21:45:43.63748Z",
	"code": "23658",
	"parent": null
},
{
	"regions": [],
	"name": "Mirador San Jose",
	"longitude": -80.8171033859253,
	"country": "ec",
	"latitude": -1.23794697853611,
	"updated_at": "2014-09-22T21:45:42.563998Z",
	"code": "2362e",
	"parent": null
},
{
	"regions": [],
	"name": "Yasuni National Park",
	"longitude": -75.8069082,
	"country": "ec",
	"latitude": -1.1006555,
	"updated_at": "2014-09-22T21:45:28.165143Z",
	"code": "2346e",
	"parent": null
},
{
	"regions": [],
	"name": "Centro Histórico",
	"longitude": -78.5119731858017,
	"country": "ec",
	"latitude": -0.220730551794987,
	"updated_at": "2014-09-13T16:57:21.991872Z",
	"code": "20a9d",
	"parent": "183d1"
},
{
	"regions": [],
	"name": "Chimborazo",
	"longitude": -78.8111801147461,
	"country": "ec",
	"latitude": -1.4712690114975,
	"updated_at": "2014-09-22T21:44:58.818747Z",
	"code": "20369",
	"parent": null
},
{
	"regions": [],
	"name": "Quilotoa",
	"longitude": -78.8970031738281,
	"country": "ec",
	"latitude": -0.861000001430511,
	"updated_at": "2014-09-22T21:44:49.640226Z",
	"code": "2020f",
	"parent": null
},
{
	"regions": [],
	"name": "Punta Blanca",
	"longitude": -80.7929992675781,
	"country": "ec",
	"latitude": -2.16000008583069,
	"updated_at": "2014-09-22T21:44:05.57296Z",
	"code": "1fd72",
	"parent": null
},
{
	"regions": [],
	"name": "San Isidro",
	"longitude": -76.8439025878906,
	"country": "ec",
	"latitude": 0.16083300113678,
	"updated_at": "2014-09-22T21:37:31.089215Z",
	"code": "1d6ee",
	"parent": null
},
{
	"regions": [],
	"name": "Peñas",
	"longitude": -77.9344024658203,
	"country": "ec",
	"latitude": -3.01277995109558,
	"updated_at": "2014-09-22T21:37:27.9821Z",
	"code": "1d697",
	"parent": null
},
{
	"regions": [],
	"name": "Same",
	"longitude": -79.993896484375,
	"country": "ec",
	"latitude": 0.822221994400024,
	"updated_at": "2014-09-22T21:37:25.088069Z",
	"code": "1d64a",
	"parent": null
},
{
	"regions": [],
	"name": "Cabuyal",
	"longitude": -79.4749984741211,
	"country": "ec",
	"latitude": 1.03332996368408,
	"updated_at": "2014-09-22T21:37:22.520427Z",
	"code": "1d5f6",
	"parent": null
},
{
	"regions": [],
	"name": "Las Tunas",
	"longitude": -80.82080078125,
	"country": "ec",
	"latitude": -1.64999997615814,
	"updated_at": "2014-09-22T21:37:21.894534Z",
	"code": "1d5e6",
	"parent": null
},
{
	"regions": [],
	"name": "Ballenita",
	"longitude": -80.8694000244141,
	"country": "ec",
	"latitude": -2.20278000831604,
	"updated_at": "2014-09-22T21:37:14.620368Z",
	"code": "1d545",
	"parent": null
},
{
	"regions": [],
	"name": "Ciudadela Costa de Oro",
	"longitude": -80.9332962036133,
	"country": "ec",
	"latitude": -2.22499990463257,
	"updated_at": "2014-09-22T21:37:14.602296Z",
	"code": "1d544",
	"parent": null
},
{
	"regions": [],
	"name": "Alausí",
	"longitude": -78.8332977294922,
	"country": "ec",
	"latitude": -2.20000004768372,
	"updated_at": "2014-09-22T21:24:56.655894Z",
	"code": "1842f",
	"parent": null
},
{
	"regions": [],
	"name": "Ambato",
	"longitude": -78.61669921875,
	"country": "ec",
	"latitude": -1.25,
	"updated_at": "2014-09-22T21:24:56.638066Z",
	"code": "1842e",
	"parent": null
},
{
	"regions": [],
	"name": "Ancayacu",
	"longitude": -76.0,
	"country": "ec",
	"latitude": -0.699999988079071,
	"updated_at": "2014-09-22T21:24:56.620138Z",
	"code": "1842d",
	"parent": null
},
{
	"regions": [],
	"name": "Archidona",
	"longitude": -77.8000030517578,
	"country": "ec",
	"latitude": -0.916666984558105,
	"updated_at": "2014-09-22T21:24:56.583628Z",
	"code": "1842c",
	"parent": null
},
{
	"regions": [],
	"name": "Arenillas",
	"longitude": -80.0667037963867,
	"country": "ec",
	"latitude": -3.54999995231628,
	"updated_at": "2014-09-22T21:24:56.559188Z",
	"code": "1842b",
	"parent": null
},
{
	"regions": [],
	"name": "Atacames",
	"longitude": -79.8499984741211,
	"country": "ec",
	"latitude": 0.866666972637177,
	"updated_at": "2014-09-22T21:24:56.505001Z",
	"code": "1842a",
	"parent": null
},
{
	"regions": [],
	"name": "Ayampe",
	"longitude": -80.8167037963867,
	"country": "ec",
	"latitude": -1.66666996479034,
	"updated_at": "2014-09-22T21:24:56.472275Z",
	"code": "18429",
	"parent": null
},
{
	"regions": [],
	"name": "Ayangue",
	"longitude": -80.7332992553711,
	"country": "ec",
	"latitude": -1.9833300113678,
	"updated_at": "2014-09-22T21:24:56.438765Z",
	"code": "18428",
	"parent": null
},
{
	"regions": [],
	"name": "Bahía de Caráquez",
	"longitude": -80.4167022705078,
	"country": "ec",
	"latitude": -0.600000023841858,
	"updated_at": "2014-09-22T21:24:56.418451Z",
	"code": "18427",
	"parent": null
},
{
	"regions": [],
	"name": "Balzar",
	"longitude": -79.9000015258789,
	"country": "ec",
	"latitude": -1.36667001247406,
	"updated_at": "2014-09-22T21:24:56.40058Z",
	"code": "18426",
	"parent": null
},
{
	"regions": ["1110"],
	"name": "Baños",
	"longitude": -78.4167022705078,
	"country": "ec",
	"latitude": -1.39999997615814,
	"updated_at": "2014-09-22T21:24:56.382857Z",
	"code": "18425",
	"parent": null
},
{
	"regions": [],
	"name": "Briseño",
	"longitude": -80.4332962036133,
	"country": "ec",
	"latitude": -0.516667008399963,
	"updated_at": "2014-09-22T21:24:56.364575Z",
	"code": "18424",
	"parent": null
},
{
	"regions": [],
	"name": "Cañas",
	"longitude": -80.8000030517578,
	"country": "ec",
	"latitude": -1.18333005905151,
	"updated_at": "2014-09-22T21:24:56.324534Z",
	"code": "18423",
	"parent": null
},
{
	"regions": [],
	"name": "Canelos",
	"longitude": -77.75,
	"country": "ec",
	"latitude": -1.58333003520966,
	"updated_at": "2014-09-22T21:24:56.298676Z",
	"code": "18422",
	"parent": null
},
{
	"regions": [],
	"name": "Canoa",
	"longitude": -80.4499969482422,
	"country": "ec",
	"latitude": -0.466666996479034,
	"updated_at": "2014-09-22T21:24:56.273097Z",
	"code": "18421",
	"parent": null
},
{
	"regions": [],
	"name": "Cayambe",
	"longitude": -78.13330078125,
	"country": "ec",
	"latitude": 0.0500000007450581,
	"updated_at": "2014-09-22T21:24:56.160198Z",
	"code": "18420",
	"parent": null
},
{
	"regions": [],
	"name": "Chanduy",
	"longitude": -80.6667022705078,
	"country": "ec",
	"latitude": -2.41667008399963,
	"updated_at": "2014-09-22T21:24:56.143944Z",
	"code": "1841f",
	"parent": null
},
{
	"regions": [],
	"name": "Chillogallo",
	"longitude": -78.5667037963867,
	"country": "ec",
	"latitude": -0.266667008399963,
	"updated_at": "2014-09-22T21:24:56.127236Z",
	"code": "1841e",
	"parent": null
},
{
	"regions": [],
	"name": "Chontamarca",
	"longitude": -79.0999984741211,
	"country": "ec",
	"latitude": -2.43333005905151,
	"updated_at": "2014-09-22T21:24:56.110456Z",
	"code": "1841d",
	"parent": null
},
{
	"regions": [],
	"name": "Chontapunta",
	"longitude": -77.3332977294922,
	"country": "ec",
	"latitude": -0.899999976158142,
	"updated_at": "2014-09-22T21:24:56.093502Z",
	"code": "1841c",
	"parent": null
},
{
	"regions": [],
	"name": "Chordeleg",
	"longitude": -78.7667007446289,
	"country": "ec",
	"latitude": -2.93333005905151,
	"updated_at": "2014-09-22T21:24:56.068656Z",
	"code": "1841b",
	"parent": null
},
{
	"regions": [],
	"name": "Chugchilán",
	"longitude": -78.9167022705078,
	"country": "ec",
	"latitude": -0.800000011920929,
	"updated_at": "2014-09-22T21:24:56.041974Z",
	"code": "1841a",
	"parent": null
},
{
	"regions": [],
	"name": "Cojimíes",
	"longitude": -80.0333023071289,
	"country": "ec",
	"latitude": 0.366667002439499,
	"updated_at": "2014-09-22T21:24:55.985967Z",
	"code": "18419",
	"parent": null
},
{
	"regions": [],
	"name": "Cotacachi",
	"longitude": -78.2667007446289,
	"country": "ec",
	"latitude": 0.300000011920929,
	"updated_at": "2014-09-22T21:24:55.925869Z",
	"code": "18418",
	"parent": null
},
{
	"regions": [],
	"name": "Cotundo",
	"longitude": -77.8000030517578,
	"country": "ec",
	"latitude": -0.883333027362823,
	"updated_at": "2014-09-22T21:24:55.909239Z",
	"code": "18417",
	"parent": null
},
{
	"regions": [],
	"name": "Crucita",
	"longitude": -80.5333023071289,
	"country": "ec",
	"latitude": -0.866666972637177,
	"updated_at": "2014-09-22T21:24:55.892806Z",
	"code": "18416",
	"parent": null
},
{
	"regions": [],
	"name": "Cuatro Hermanas",
	"longitude": -79.9332962036133,
	"country": "ec",
	"latitude": -2.16667008399963,
	"updated_at": "2014-09-22T21:24:55.876104Z",
	"code": "18415",
	"parent": null
},
{
	"regions": [],
	"name": "Cuenca",
	"longitude": -78.9845123291016,
	"country": "ec",
	"latitude": -2.89927268028259,
	"updated_at": "2014-09-22T21:24:55.85929Z",
	"code": "18414",
	"parent": null
},
{
	"regions": [],
	"name": "Cumbaratza",
	"longitude": -78.8630981445312,
	"country": "ec",
	"latitude": -3.99056005477905,
	"updated_at": "2014-09-22T21:24:55.842233Z",
	"code": "18413",
	"parent": null
},
{
	"regions": [],
	"name": "Derna",
	"longitude": -76.7332992553711,
	"country": "ec",
	"latitude": -0.449999988079071,
	"updated_at": "2014-09-22T21:24:52.914596Z",
	"code": "18412",
	"parent": null
},
{
	"regions": [],
	"name": "Durán",
	"longitude": -79.8332977294922,
	"country": "ec",
	"latitude": -2.20000004768372,
	"updated_at": "2014-09-22T21:24:52.888657Z",
	"code": "18411",
	"parent": null
},
{
	"regions": [],
	"name": "Entrada",
	"longitude": -80.8000030517578,
	"country": "ec",
	"latitude": -1.71667003631592,
	"updated_at": "2014-09-22T21:24:52.860781Z",
	"code": "18410",
	"parent": null
},
{
	"regions": [],
	"name": "Esmeraldas",
	"longitude": -79.6999969482422,
	"country": "ec",
	"latitude": 0.983332991600037,
	"updated_at": "2014-09-22T21:24:52.834662Z",
	"code": "1840f",
	"parent": null
},
{
	"regions": [],
	"name": "Galápagos",
	"longitude": -78.7332992553711,
	"country": "ec",
	"latitude": 0.349999994039536,
	"updated_at": "2014-09-22T21:24:52.800701Z",
	"code": "1840e",
	"parent": null
},
{
	"regions": [],
	"name": "Guadual",
	"longitude": -79.1667022705078,
	"country": "ec",
	"latitude": 0.800000011920929,
	"updated_at": "2014-09-22T21:24:52.764218Z",
	"code": "1840d",
	"parent": null
},
{
	"regions": [],
	"name": "Gualaceo",
	"longitude": -78.7833023071289,
	"country": "ec",
	"latitude": -2.90000009536743,
	"updated_at": "2014-09-22T21:24:52.739934Z",
	"code": "1840c",
	"parent": null
},
{
	"regions": ["1111"],
	"name": "Guayaquil",
	"longitude": -79.894287109375,
	"country": "ec",
	"latitude": -2.20303964614868,
	"updated_at": "2014-09-22T21:24:52.720364Z",
	"code": "1840b",
	"parent": null
},
{
	"regions": [],
	"name": "Hacienda Callo Mancheno",
	"longitude": -78.5999984741211,
	"country": "ec",
	"latitude": -0.75,
	"updated_at": "2014-09-22T21:24:52.680995Z",
	"code": "1840a",
	"parent": null
},
{
	"regions": [],
	"name": "Hacienda Guayas",
	"longitude": -79.86669921875,
	"country": "ec",
	"latitude": -1.31666994094849,
	"updated_at": "2014-09-22T21:24:52.590068Z",
	"code": "18409",
	"parent": null
},
{
	"regions": [],
	"name": "Hacienda La Alegría",
	"longitude": -78.5832977294922,
	"country": "ec",
	"latitude": -0.449999988079071,
	"updated_at": "2014-09-22T21:24:52.561622Z",
	"code": "18408",
	"parent": null
},
{
	"regions": [],
	"name": "Hacienda Porvenir",
	"longitude": -78.4832992553711,
	"country": "ec",
	"latitude": -0.533333003520966,
	"updated_at": "2014-09-22T21:24:52.527715Z",
	"code": "18407",
	"parent": null
},
{
	"regions": [],
	"name": "Quiñonez",
	"longitude": -78.4832992553711,
	"country": "ec",
	"latitude": -0.0833332985639572,
	"updated_at": "2014-09-22T21:24:52.495903Z",
	"code": "18406",
	"parent": null
},
{
	"regions": [],
	"name": "Hacienda Rumipamba",
	"longitude": -78.5,
	"country": "ec",
	"latitude": -0.183332994580269,
	"updated_at": "2014-09-22T21:24:52.468667Z",
	"code": "18405",
	"parent": null
},
{
	"regions": [],
	"name": "Hacienda San Alfonso",
	"longitude": -78.0167007446289,
	"country": "ec",
	"latitude": 0.466666996479034,
	"updated_at": "2014-09-22T21:24:52.450757Z",
	"code": "18404",
	"parent": null
},
{
	"regions": [],
	"name": "San Francisco",
	"longitude": -78.5,
	"country": "ec",
	"latitude": -0.25,
	"updated_at": "2014-09-22T21:24:52.432745Z",
	"code": "18403",
	"parent": null
},
{
	"regions": [],
	"name": "San José",
	"longitude": -78.3000030517578,
	"country": "ec",
	"latitude": -0.150000005960464,
	"updated_at": "2014-09-22T21:24:52.414369Z",
	"code": "18402",
	"parent": null
},
{
	"regions": [],
	"name": "Hacienda San Juan",
	"longitude": -78.13330078125,
	"country": "ec",
	"latitude": 0.5,
	"updated_at": "2014-09-22T21:24:52.395809Z",
	"code": "18401",
	"parent": null
},
{
	"regions": [],
	"name": "Hacienda Santa Ana",
	"longitude": -78.4832992553711,
	"country": "ec",
	"latitude": -0.533333003520966,
	"updated_at": "2014-09-22T21:24:52.375258Z",
	"code": "18400",
	"parent": null
},
{
	"regions": [],
	"name": "Santa Rita",
	"longitude": -78.5500030517578,
	"country": "ec",
	"latitude": -0.266667008399963,
	"updated_at": "2014-09-22T21:24:52.347456Z",
	"code": "183ff",
	"parent": null
},
{
	"regions": [],
	"name": "Hacienda Santa Rosa",
	"longitude": -78.4000015258789,
	"country": "ec",
	"latitude": -0.200000002980232,
	"updated_at": "2014-09-22T21:24:52.319647Z",
	"code": "183fe",
	"parent": null
},
{
	"regions": [],
	"name": "Hacienda Senegal",
	"longitude": -79.88330078125,
	"country": "ec",
	"latitude": -4.36667013168335,
	"updated_at": "2014-09-22T21:24:52.292394Z",
	"code": "183fd",
	"parent": null
},
{
	"regions": [],
	"name": "Hacienda Tambillo Alto",
	"longitude": -78.5500030517578,
	"country": "ec",
	"latitude": -0.416667014360428,
	"updated_at": "2014-09-22T21:24:52.261461Z",
	"code": "183fc",
	"parent": null
},
{
	"regions": [],
	"name": "Hacienda Zuleta",
	"longitude": -78.0832977294922,
	"country": "ec",
	"latitude": 0.200000002980232,
	"updated_at": "2014-09-22T21:24:52.227777Z",
	"code": "183fb",
	"parent": null
},
{
	"regions": [],
	"name": "Huaquillas",
	"longitude": -80.2332992553711,
	"country": "ec",
	"latitude": -3.4833300113678,
	"updated_at": "2014-09-22T21:24:52.163498Z",
	"code": "183fa",
	"parent": null
},
{
	"regions": [],
	"name": "Ibarra",
	"longitude": -78.11669921875,
	"country": "ec",
	"latitude": 0.349999994039536,
	"updated_at": "2014-09-22T21:24:52.123767Z",
	"code": "183f9",
	"parent": null
},
{
	"regions": [],
	"name": "Jaramijó",
	"longitude": -80.63330078125,
	"country": "ec",
	"latitude": -0.949999988079071,
	"updated_at": "2014-09-22T21:24:52.078452Z",
	"code": "183f8",
	"parent": null
},
{
	"regions": [],
	"name": "La Delicia",
	"longitude": -78.6999969482422,
	"country": "ec",
	"latitude": 0.0666666999459267,
	"updated_at": "2014-09-22T21:24:52.01797Z",
	"code": "183f7",
	"parent": null
},
{
	"regions": [],
	"name": "Las Peñas",
	"longitude": -79.1667022705078,
	"country": "ec",
	"latitude": 1.10000002384186,
	"updated_at": "2014-09-22T21:24:51.982584Z",
	"code": "183f6",
	"parent": null
},
{
	"regions": [],
	"name": "Latacunga",
	"longitude": -78.61669921875,
	"country": "ec",
	"latitude": -0.933332979679108,
	"updated_at": "2014-09-22T21:24:51.93289Z",
	"code": "183f5",
	"parent": null
},
{
	"regions": [],
	"name": "Latas",
	"longitude": -77.7332992553711,
	"country": "ec",
	"latitude": -1.03332996368408,
	"updated_at": "2014-09-22T21:24:51.915003Z",
	"code": "183f4",
	"parent": null
},
{
	"regions": [],
	"name": "Llurimaguas",
	"longitude": -79.0167007446289,
	"country": "ec",
	"latitude": 0.300000011920929,
	"updated_at": "2014-09-22T21:24:51.896778Z",
	"code": "183f3",
	"parent": null
},
{
	"regions": [],
	"name": "Loja",
	"longitude": -79.2166976928711,
	"country": "ec",
	"latitude": -4.0,
	"updated_at": "2014-09-22T21:24:51.878206Z",
	"code": "183f2",
	"parent": null
},
{
	"regions": [],
	"name": "Machala",
	"longitude": -79.9666976928711,
	"country": "ec",
	"latitude": -3.2666699886322,
	"updated_at": "2014-09-22T21:24:51.837248Z",
	"code": "183f1",
	"parent": null
},
{
	"regions": [],
	"name": "Machalilla",
	"longitude": -80.7667007446289,
	"country": "ec",
	"latitude": -1.4833300113678,
	"updated_at": "2014-09-22T21:24:51.809486Z",
	"code": "183f0",
	"parent": null
},
{
	"regions": [],
	"name": "Manglaralto",
	"longitude": -80.7332992553711,
	"country": "ec",
	"latitude": -1.83333003520966,
	"updated_at": "2014-09-22T21:24:51.746884Z",
	"code": "183ef",
	"parent": null
},
{
	"regions": [],
	"name": "Manta",
	"longitude": -80.7332992553711,
	"country": "ec",
	"latitude": -0.949999988079071,
	"updated_at": "2014-09-22T21:24:51.714314Z",
	"code": "183ee",
	"parent": null
},
{
	"regions": [],
	"name": "Mera",
	"longitude": -78.13330078125,
	"country": "ec",
	"latitude": -1.46667003631592,
	"updated_at": "2014-09-22T21:24:51.683888Z",
	"code": "183ed",
	"parent": null
},
{
	"regions": [],
	"name": "Mindo",
	"longitude": -78.7769470214844,
	"country": "ec",
	"latitude": -0.0517558977007866,
	"updated_at": "2014-09-22T21:24:51.647446Z",
	"code": "183ec",
	"parent": null
},
{
	"regions": [],
	"name": "Mompiche",
	"longitude": -80.0167007446289,
	"country": "ec",
	"latitude": 0.5,
	"updated_at": "2014-09-22T21:24:51.627568Z",
	"code": "183eb",
	"parent": null
},
{
	"regions": [],
	"name": "Montañita",
	"longitude": -80.75,
	"country": "ec",
	"latitude": -1.83333003520966,
	"updated_at": "2014-09-22T21:24:51.607546Z",
	"code": "183ea",
	"parent": null
},
{
	"regions": [],
	"name": "Mulaló",
	"longitude": -78.5667037963867,
	"country": "ec",
	"latitude": -0.783333003520966,
	"updated_at": "2014-09-22T21:24:51.536132Z",
	"code": "183e9",
	"parent": null
},
{
	"regions": [],
	"name": "Nanegalito",
	"longitude": -78.6667022705078,
	"country": "ec",
	"latitude": 0.0666666999459267,
	"updated_at": "2014-09-22T21:24:51.50844Z",
	"code": "183e8",
	"parent": null
},
{
	"regions": [],
	"name": "Olón",
	"longitude": -80.7667007446289,
	"country": "ec",
	"latitude": -1.7666699886322,
	"updated_at": "2014-09-22T21:24:51.473872Z",
	"code": "183e7",
	"parent": null
},
{
	"regions": [],
	"name": "Otavalo",
	"longitude": -78.2667007446289,
	"country": "ec",
	"latitude": 0.233333006501198,
	"updated_at": "2014-09-22T21:24:51.440303Z",
	"code": "183e6",
	"parent": null
},
{
	"regions": [],
	"name": "Pallatanga",
	"longitude": -78.9499969482422,
	"country": "ec",
	"latitude": -1.9833300113678,
	"updated_at": "2014-09-22T21:24:51.396537Z",
	"code": "183e5",
	"parent": null
},
{
	"regions": [],
	"name": "Palmar",
	"longitude": -80.7332992553711,
	"country": "ec",
	"latitude": -2.03332996368408,
	"updated_at": "2014-09-22T21:24:51.378285Z",
	"code": "183e4",
	"parent": null
},
{
	"regions": [],
	"name": "Papallacta",
	"longitude": -78.13330078125,
	"country": "ec",
	"latitude": -0.366667002439499,
	"updated_at": "2014-09-22T21:24:51.358632Z",
	"code": "183e3",
	"parent": null
},
{
	"regions": [],
	"name": "Paute",
	"longitude": -78.75,
	"country": "ec",
	"latitude": -2.78332996368408,
	"updated_at": "2014-09-22T21:24:51.338851Z",
	"code": "183e2",
	"parent": null
},
{
	"regions": [],
	"name": "Pedernales",
	"longitude": -80.0500030517578,
	"country": "ec",
	"latitude": 0.0833332985639572,
	"updated_at": "2014-09-22T21:24:51.31907Z",
	"code": "183e1",
	"parent": null
},
{
	"regions": [],
	"name": "Pedro Vicente Maldonado",
	"longitude": -79.0999984741211,
	"country": "ec",
	"latitude": 0.0833332985639572,
	"updated_at": "2014-09-22T21:24:51.293924Z",
	"code": "183e0",
	"parent": null
},
{
	"regions": [],
	"name": "Playas",
	"longitude": -80.38330078125,
	"country": "ec",
	"latitude": -2.63333010673523,
	"updated_at": "2014-09-22T21:24:51.267896Z",
	"code": "183df",
	"parent": null
},
{
	"regions": [],
	"name": "Posorja",
	"longitude": -80.25,
	"country": "ec",
	"latitude": -2.70000004768372,
	"updated_at": "2014-09-22T21:24:51.206497Z",
	"code": "183de",
	"parent": null
},
{
	"regions": [],
	"name": "Puembo",
	"longitude": -78.3499984741211,
	"country": "ec",
	"latitude": -0.183332994580269,
	"updated_at": "2014-09-22T21:24:51.149155Z",
	"code": "183dd",
	"parent": null
},
{
	"regions": ["1052"],
	"name": "Puerto Ayora",
	"longitude": -90.3167037963867,
	"country": "ec",
	"latitude": -0.75,
	"updated_at": "2014-09-22T21:24:51.131216Z",
	"code": "183dc",
	"parent": null
},
{
	"regions": ["1052"],
	"name": "Puerto Baquerizo Moreno",
	"longitude": -89.5999984741211,
	"country": "ec",
	"latitude": -0.899999976158142,
	"updated_at": "2014-09-22T21:24:51.113437Z",
	"code": "183db",
	"parent": null
},
{
	"regions": [],
	"name": "Puerto Cayo",
	"longitude": -80.7332992553711,
	"country": "ec",
	"latitude": -1.35000002384186,
	"updated_at": "2014-09-22T21:24:51.095117Z",
	"code": "183da",
	"parent": null
},
{
	"regions": [],
	"name": "Puerto Francisco de Orellana",
	"longitude": -76.9666976928711,
	"country": "ec",
	"latitude": -0.466666996479034,
	"updated_at": "2014-09-22T21:24:51.076786Z",
	"code": "183d9",
	"parent": null
},
{
	"regions": [],
	"name": "Puerto López",
	"longitude": -80.8167037963867,
	"country": "ec",
	"latitude": -1.56666994094849,
	"updated_at": "2014-09-22T21:24:51.058623Z",
	"code": "183d8",
	"parent": null
},
{
	"regions": [],
	"name": "Puerto Misahuallí",
	"longitude": -77.6667022705078,
	"country": "ec",
	"latitude": -1.03332996368408,
	"updated_at": "2014-09-22T21:24:51.030711Z",
	"code": "183d7",
	"parent": null
},
{
	"regions": [],
	"name": "Puerto Quito",
	"longitude": -79.2667007446289,
	"country": "ec",
	"latitude": 0.116667002439499,
	"updated_at": "2014-09-22T21:24:50.973376Z",
	"code": "183d6",
	"parent": null
},
{
	"regions": ["1052"],
	"name": "Puerto Villamil",
	"longitude": -91.0167007446289,
	"country": "ec",
	"latitude": -0.933332979679108,
	"updated_at": "2014-09-22T21:24:50.909828Z",
	"code": "183d5",
	"parent": null
},
{
	"regions": [],
	"name": "Puyo",
	"longitude": -77.9832992553711,
	"country": "ec",
	"latitude": -1.46667003631592,
	"updated_at": "2014-09-22T21:24:50.883606Z",
	"code": "183d4",
	"parent": null
},
{
	"regions": [],
	"name": "Queseras",
	"longitude": -78.36669921875,
	"country": "ec",
	"latitude": 0.266667008399963,
	"updated_at": "2014-09-22T21:24:50.863615Z",
	"code": "183d3",
	"parent": null
},
{
	"regions": [],
	"name": "Quinche",
	"longitude": -78.3000030517578,
	"country": "ec",
	"latitude": -0.116667002439499,
	"updated_at": "2014-09-22T21:24:50.843372Z",
	"code": "183d2",
	"parent": null
},
{
	"regions": [],
	"name": "Quito",
	"longitude": -78.475685,
	"country": "ec",
	"latitude": -0.17681,
	"updated_at": "2014-09-22T21:24:50.822297Z",
	"code": "183d1",
	"parent": null
},
{
	"regions": [],
	"name": "Retiro",
	"longitude": -79.7833023071289,
	"country": "ec",
	"latitude": -3.45000004768372,
	"updated_at": "2014-09-22T21:24:50.801655Z",
	"code": "183d0",
	"parent": null
},
{
	"regions": [],
	"name": "Riobamba",
	"longitude": -78.63330078125,
	"country": "ec",
	"latitude": -1.66666996479034,
	"updated_at": "2014-09-22T21:24:50.755705Z",
	"code": "183cf",
	"parent": null
},
{
	"regions": [],
	"name": "Río Negro",
	"longitude": -78.2166976928711,
	"country": "ec",
	"latitude": -1.39999997615814,
	"updated_at": "2014-09-22T21:24:50.727676Z",
	"code": "183ce",
	"parent": null
},
{
	"regions": [],
	"name": "Salazar",
	"longitude": -79.86669921875,
	"country": "ec",
	"latitude": -0.766667008399963,
	"updated_at": "2014-09-22T21:24:50.699965Z",
	"code": "183cd",
	"parent": null
},
{
	"regions": [],
	"name": "Salinas",
	"longitude": -80.9666976928711,
	"country": "ec",
	"latitude": -2.21667003631592,
	"updated_at": "2014-09-22T21:24:50.663906Z",
	"code": "183cc",
	"parent": null
},
{
	"regions": [],
	"name": "San Andrés",
	"longitude": -78.6832962036133,
	"country": "ec",
	"latitude": -1.58333003520966,
	"updated_at": "2014-09-22T21:24:50.629103Z",
	"code": "183cb",
	"parent": null
},
{
	"regions": [],
	"name": "San Antonio",
	"longitude": -78.4499969482422,
	"country": "ec",
	"latitude": -0.0166666992008686,
	"updated_at": "2014-09-22T21:24:50.605953Z",
	"code": "183ca",
	"parent": null
},
{
	"regions": [],
	"name": "San Clemente",
	"longitude": -80.5,
	"country": "ec",
	"latitude": -0.75,
	"updated_at": "2014-09-22T21:24:50.588071Z",
	"code": "183c9",
	"parent": null
},
{
	"regions": ["1052"],
	"name": "San Cristóbal",
	"longitude": -89.5667037963867,
	"country": "ec",
	"latitude": -0.916666984558105,
	"updated_at": "2014-09-22T21:24:50.570133Z",
	"code": "183c8",
	"parent": null
},
{
	"regions": [],
	"name": "Sangolquí",
	"longitude": -78.4499969482422,
	"country": "ec",
	"latitude": -0.31666699051857,
	"updated_at": "2014-09-22T21:24:50.551536Z",
	"code": "183c7",
	"parent": null
},
{
	"regions": [],
	"name": "San Jacinto",
	"longitude": -80.5167007446289,
	"country": "ec",
	"latitude": -0.783333003520966,
	"updated_at": "2014-09-22T21:24:50.531391Z",
	"code": "183c6",
	"parent": null
},
{
	"regions": [],
	"name": "San Juan",
	"longitude": -78.7833023071289,
	"country": "ec",
	"latitude": -1.63332998752594,
	"updated_at": "2014-09-22T21:24:50.511536Z",
	"code": "183c5",
	"parent": null
},
{
	"regions": [],
	"name": "San Lorenzo",
	"longitude": -80.9000015258789,
	"country": "ec",
	"latitude": -1.06666994094849,
	"updated_at": "2014-09-22T21:24:50.485035Z",
	"code": "183c4",
	"parent": null
},
{
	"regions": [],
	"name": "San Lorenzo",
	"longitude": -79.7833023071289,
	"country": "ec",
	"latitude": -2.53332996368408,
	"updated_at": "2014-09-22T21:24:50.459005Z",
	"code": "183c3",
	"parent": null
},
{
	"regions": [],
	"name": "San Miguel de los Bancos",
	"longitude": -78.88330078125,
	"country": "ec",
	"latitude": 0.0166666992008686,
	"updated_at": "2014-09-22T21:24:50.431652Z",
	"code": "183c2",
	"parent": null
},
{
	"regions": [],
	"name": "San Pedro",
	"longitude": -80.5667037963867,
	"country": "ec",
	"latitude": -2.21667003631592,
	"updated_at": "2014-09-22T21:24:50.398459Z",
	"code": "183c1",
	"parent": null
},
{
	"regions": ["1052"],
	"name": "Santa Cruz",
	"longitude": -90.3499984741211,
	"country": "ec",
	"latitude": -0.533333003520966,
	"updated_at": "2014-09-22T21:24:50.339847Z",
	"code": "183c0",
	"parent": null
},
{
	"regions": [],
	"name": "Santa Elena",
	"longitude": -80.8499984741211,
	"country": "ec",
	"latitude": -2.2333300113678,
	"updated_at": "2014-09-22T21:24:50.320236Z",
	"code": "183bf",
	"parent": null
},
{
	"regions": [],
	"name": "Santa Isabel",
	"longitude": -79.3167037963867,
	"country": "ec",
	"latitude": -3.2666699886322,
	"updated_at": "2014-09-22T21:24:50.300521Z",
	"code": "183be",
	"parent": null
},
{
	"regions": [],
	"name": "Santa Marianita",
	"longitude": -80.8332977294922,
	"country": "ec",
	"latitude": -0.983332991600037,
	"updated_at": "2014-09-22T21:24:50.280357Z",
	"code": "183bd",
	"parent": null
},
{
	"regions": [],
	"name": "Santo Domingo de los Colorados",
	"longitude": -79.1500015258789,
	"country": "ec",
	"latitude": -0.25,
	"updated_at": "2014-09-22T21:24:50.260224Z",
	"code": "183bc",
	"parent": null
},
{
	"regions": [],
	"name": "San Vicente",
	"longitude": -78.9332962036133,
	"country": "ec",
	"latitude": -2.79999995231628,
	"updated_at": "2014-09-22T21:24:50.237162Z",
	"code": "183bb",
	"parent": null
},
{
	"regions": ["1052"],
	"name": "Seymour",
	"longitude": -90.2833023071289,
	"country": "ec",
	"latitude": -0.416667014360428,
	"updated_at": "2014-09-22T21:24:50.183211Z",
	"code": "183ba",
	"parent": null
},
{
	"regions": [],
	"name": "Súa",
	"longitude": -79.8748111724854,
	"country": "ec",
	"latitude": 0.861018375615139,
	"updated_at": "2014-09-22T21:24:50.117017Z",
	"code": "183b9",
	"parent": null
},
{
	"regions": [],
	"name": "Sunimón",
	"longitude": -77.4167022705078,
	"country": "ec",
	"latitude": -0.933332979679108,
	"updated_at": "2014-09-22T21:24:50.08188Z",
	"code": "183b8",
	"parent": null
},
{
	"regions": [],
	"name": "Tababela",
	"longitude": -78.3332977294922,
	"country": "ec",
	"latitude": -0.183332994580269,
	"updated_at": "2014-09-22T21:24:50.063932Z",
	"code": "183b7",
	"parent": null
},
{
	"regions": [],
	"name": "Tandayapa",
	"longitude": -78.7667007446289,
	"country": "ec",
	"latitude": -0.0166666992008686,
	"updated_at": "2014-09-22T21:24:50.027605Z",
	"code": "183b6",
	"parent": null
},
{
	"regions": [],
	"name": "Tena",
	"longitude": -77.8167037963867,
	"country": "ec",
	"latitude": -0.983332991600037,
	"updated_at": "2014-09-22T21:24:50.007586Z",
	"code": "183b5",
	"parent": null
},
{
	"regions": [],
	"name": "Tereré",
	"longitude": -76.1500015258789,
	"country": "ec",
	"latitude": -0.43333300948143,
	"updated_at": "2014-09-22T21:24:49.987471Z",
	"code": "183b4",
	"parent": null
},
{
	"regions": [],
	"name": "Totoracocha",
	"longitude": -78.9832992553711,
	"country": "ec",
	"latitude": -2.90000009536743,
	"updated_at": "2014-09-22T21:24:49.964159Z",
	"code": "183b3",
	"parent": null
},
{
	"regions": [],
	"name": "Tumbabiro",
	"longitude": -78.1999969482422,
	"country": "ec",
	"latitude": 0.466666996479034,
	"updated_at": "2014-09-22T21:24:49.911694Z",
	"code": "183b2",
	"parent": null
},
{
	"regions": [],
	"name": "Tumbaco",
	"longitude": -78.4000015258789,
	"country": "ec",
	"latitude": -0.216666996479034,
	"updated_at": "2014-09-22T21:24:49.877305Z",
	"code": "183b1",
	"parent": null
},
{
	"regions": [],
	"name": "Turi",
	"longitude": -79.0167007446289,
	"country": "ec",
	"latitude": -2.93333005905151,
	"updated_at": "2014-09-22T21:24:49.844064Z",
	"code": "183b0",
	"parent": null
},
{
	"regions": [],
	"name": "Turupamba",
	"longitude": -79.0832977294922,
	"country": "ec",
	"latitude": -2.86666989326477,
	"updated_at": "2014-09-22T21:24:49.814969Z",
	"code": "183af",
	"parent": null
},
{
	"regions": [],
	"name": "Urcusiqui",
	"longitude": -78.38330078125,
	"country": "ec",
	"latitude": 0.283333003520966,
	"updated_at": "2014-09-22T21:24:49.795247Z",
	"code": "183ae",
	"parent": null
},
{
	"regions": [],
	"name": "Valladolid",
	"longitude": -79.13330078125,
	"country": "ec",
	"latitude": -4.55000019073486,
	"updated_at": "2014-09-22T21:24:49.777702Z",
	"code": "183ad",
	"parent": null
},
{
	"regions": [],
	"name": "Vilcabamba",
	"longitude": -79.25,
	"country": "ec",
	"latitude": -4.25,
	"updated_at": "2014-09-22T21:24:49.757839Z",
	"code": "183ac",
	"parent": null
},
{
	"regions": [],
	"name": "Alao",
	"longitude": -78.4832992553711,
	"country": "ec",
	"latitude": -1.89999997615814,
	"updated_at": "2014-09-22T21:24:56.672566Z",
	"code": "22571",
	"parent": null
},
{
	"regions": [],
	"name": "Anconcito",
	"longitude": -80.88330078125,
	"country": "ec",
	"latitude": -2.33332991600037,
	"updated_at": "2014-09-22T21:24:56.60177Z",
	"code": "22570",
	"parent": null
},
{
	"regions": [],
	"name": "Arrayán",
	"longitude": -79.0500030517578,
	"country": "ec",
	"latitude": -3.08332991600037,
	"updated_at": "2014-09-22T21:24:56.533129Z",
	"code": "2256f",
	"parent": null
},
{
	"regions": [],
	"name": "Cajabamba",
	"longitude": -78.75,
	"country": "ec",
	"latitude": -1.70000004768372,
	"updated_at": "2014-09-22T21:24:56.346371Z",
	"code": "2256e",
	"parent": null
},
{
	"regions": [],
	"name": "Cariaco",
	"longitude": -78.6667022705078,
	"country": "ec",
	"latitude": 0.116667002439499,
	"updated_at": "2014-09-22T21:24:56.241049Z",
	"code": "2256d",
	"parent": null
},
{
	"regions": [],
	"name": "Castelnovo",
	"longitude": -79.8167037963867,
	"country": "ec",
	"latitude": 0.883333027362823,
	"updated_at": "2014-09-22T21:24:56.20762Z",
	"code": "2256c",
	"parent": null
},
{
	"regions": [],
	"name": "Catamayo",
	"longitude": -79.3499984741211,
	"country": "ec",
	"latitude": -3.9833300113678,
	"updated_at": "2014-09-22T21:24:56.176271Z",
	"code": "2256b",
	"parent": null
},
{
	"regions": [],
	"name": "Chunchi",
	"longitude": -78.9167022705078,
	"country": "ec",
	"latitude": -2.28332996368408,
	"updated_at": "2014-09-22T21:24:56.016852Z",
	"code": "2256a",
	"parent": null
},
{
	"regions": [],
	"name": "Cosanga",
	"longitude": -77.86669921875,
	"country": "ec",
	"latitude": -0.600000023841858,
	"updated_at": "2014-09-22T21:24:55.956338Z",
	"code": "22569",
	"parent": null
},
{
	"regions": [],
	"name": "Cumbayá",
	"longitude": -78.4332962036133,
	"country": "ec",
	"latitude": -0.200000002980232,
	"updated_at": "2014-09-22T21:24:52.95208Z",
	"code": "22568",
	"parent": null
},
{
	"regions": [],
	"name": "Cuyavenus",
	"longitude": -75.88330078125,
	"country": "ec",
	"latitude": -0.266667008399963,
	"updated_at": "2014-09-22T21:24:52.932329Z",
	"code": "22567",
	"parent": null
},
{
	"regions": [],
	"name": "Hacienda Bellavista",
	"longitude": -78.5,
	"country": "ec",
	"latitude": -0.116667002439499,
	"updated_at": "2014-09-22T21:24:52.700735Z",
	"code": "22566",
	"parent": null
},
{
	"regions": [],
	"name": "Hacienda Chamanal",
	"longitude": -78.11669921875,
	"country": "ec",
	"latitude": -0.633333027362823,
	"updated_at": "2014-09-22T21:24:52.661108Z",
	"code": "22565",
	"parent": null
},
{
	"regions": [],
	"name": "Hacienda Chiche Obraje",
	"longitude": -78.36669921875,
	"country": "ec",
	"latitude": -0.200000002980232,
	"updated_at": "2014-09-22T21:24:52.641129Z",
	"code": "22564",
	"parent": null
},
{
	"regions": [],
	"name": "Hacienda El Haro",
	"longitude": -77.6667022705078,
	"country": "ec",
	"latitude": 0.816667020320892,
	"updated_at": "2014-09-22T21:24:52.615588Z",
	"code": "22563",
	"parent": null
},
{
	"regions": [],
	"name": "Honorato Vásquez",
	"longitude": -78.9167022705078,
	"country": "ec",
	"latitude": -2.53332996368408,
	"updated_at": "2014-09-22T21:24:52.202332Z",
	"code": "22562",
	"parent": null
},
{
	"regions": [],
	"name": "Huagrahuasi",
	"longitude": -78.4499969482422,
	"country": "ec",
	"latitude": -1.0166699886322,
	"updated_at": "2014-09-22T21:24:52.182853Z",
	"code": "22561",
	"parent": null
},
{
	"regions": [],
	"name": "Huigra",
	"longitude": -78.9832992553711,
	"country": "ec",
	"latitude": -2.28332996368408,
	"updated_at": "2014-09-22T21:24:52.143492Z",
	"code": "22560",
	"parent": null
},
{
	"regions": [],
	"name": "Jama",
	"longitude": -80.2667007446289,
	"country": "ec",
	"latitude": -0.183332994580269,
	"updated_at": "2014-09-22T21:24:52.101717Z",
	"code": "2255f",
	"parent": null
},
{
	"regions": [],
	"name": "La Concordia",
	"longitude": -79.38330078125,
	"country": "ec",
	"latitude": 0.0,
	"updated_at": "2014-09-22T21:24:52.050492Z",
	"code": "2255e",
	"parent": null
},
{
	"regions": [],
	"name": "Lasso",
	"longitude": -78.5999984741211,
	"country": "ec",
	"latitude": -0.75,
	"updated_at": "2014-09-22T21:24:51.950945Z",
	"code": "2255d",
	"parent": null
},
{
	"regions": [],
	"name": "Machachi",
	"longitude": -78.5667037963867,
	"country": "ec",
	"latitude": -0.5,
	"updated_at": "2014-09-22T21:24:51.860444Z",
	"code": "2255c",
	"parent": null
},
{
	"regions": [],
	"name": "Malacatos",
	"longitude": -79.2833023071289,
	"country": "ec",
	"latitude": -4.23332977294922,
	"updated_at": "2014-09-22T21:24:51.781732Z",
	"code": "2255b",
	"parent": null
},
{
	"regions": [],
	"name": "Milagro",
	"longitude": -79.5999984741211,
	"country": "ec",
	"latitude": -2.11666989326477,
	"updated_at": "2014-09-22T21:24:51.665875Z",
	"code": "2255a",
	"parent": null
},
{
	"regions": [],
	"name": "Montecristi",
	"longitude": -80.6667022705078,
	"country": "ec",
	"latitude": -1.04999995231628,
	"updated_at": "2014-09-22T21:24:51.587534Z",
	"code": "22559",
	"parent": null
},
{
	"regions": [],
	"name": "Pacoche",
	"longitude": -80.8332977294922,
	"country": "ec",
	"latitude": -1.03332996368408,
	"updated_at": "2014-09-22T21:24:51.414438Z",
	"code": "22558",
	"parent": null
},
{
	"regions": [],
	"name": "Portoviejo",
	"longitude": -80.4499969482422,
	"country": "ec",
	"latitude": -1.04999995231628,
	"updated_at": "2014-09-22T21:24:51.240681Z",
	"code": "22557",
	"parent": null
},
{
	"regions": [],
	"name": "Providencia",
	"longitude": -76.4666976928711,
	"country": "ec",
	"latitude": -0.466666996479034,
	"updated_at": "2014-09-22T21:24:51.171968Z",
	"code": "22556",
	"parent": null
},
{
	"regions": [],
	"name": "Puerto Montúfar",
	"longitude": -76.0,
	"country": "ec",
	"latitude": -0.100000001490116,
	"updated_at": "2014-09-22T21:24:51.003035Z",
	"code": "22555",
	"parent": null
},
{
	"regions": [],
	"name": "Puerto Velasco Ibarra",
	"longitude": -90.4832992553711,
	"country": "ec",
	"latitude": -1.28332996368408,
	"updated_at": "2014-09-22T21:24:50.936748Z",
	"code": "22554",
	"parent": null
},
{
	"regions": [],
	"name": "Río Arajuno",
	"longitude": -77.5832977294922,
	"country": "ec",
	"latitude": -1.10000002384186,
	"updated_at": "2014-09-22T21:24:50.781441Z",
	"code": "22553",
	"parent": null
},
{
	"regions": [],
	"name": "San Rafael",
	"longitude": -78.2332992553711,
	"country": "ec",
	"latitude": 0.183332994580269,
	"updated_at": "2014-09-22T21:24:50.362225Z",
	"code": "22552",
	"parent": null
},
{
	"regions": [],
	"name": "Saraguro",
	"longitude": -79.2166976928711,
	"country": "ec",
	"latitude": -3.59999990463257,
	"updated_at": "2014-09-22T21:24:50.211075Z",
	"code": "22551",
	"parent": null
},
{
	"regions": [],
	"name": "Sigchos",
	"longitude": -78.88330078125,
	"country": "ec",
	"latitude": -0.699999988079071,
	"updated_at": "2014-09-22T21:24:50.15111Z",
	"code": "22550",
	"parent": null
},
{
	"regions": [],
	"name": "Tabacundo",
	"longitude": -78.1999969482422,
	"country": "ec",
	"latitude": 0.0500000007450581,
	"updated_at": "2014-09-22T21:24:50.045957Z",
	"code": "2254f",
	"parent": null
},
{
	"regions": [],
	"name": "Tulcán",
	"longitude": -77.7166976928711,
	"country": "ec",
	"latitude": 0.800000011920929,
	"updated_at": "2014-09-22T21:24:49.938091Z",
	"code": "2254e",
	"parent": null
},
{
	"regions": [],
	"name": "Zamora",
	"longitude": -78.9567031860352,
	"country": "ec",
	"latitude": -4.06916999816895,
	"updated_at": "2014-09-22T21:24:49.737662Z",
	"code": "2254d",
	"parent": null
}]