[{
	"continent": "sa",
	"updated_at": "2016-02-09T09:30:14.544429Z",
	"code": "fk",
	"name": "Falkland Islands (Malvinas)"
},
{
	"continent": "sa",
	"updated_at": "2016-02-09T09:30:13.07255Z",
	"code": "ve",
	"name": "Venezuela"
},
{
	"continent": "sa",
	"updated_at": "2016-02-09T09:30:12.955049Z",
	"code": "uy",
	"name": "Uruguay"
},
{
	"continent": "sa",
	"updated_at": "2016-02-09T09:30:13.207131Z",
	"code": "sr",
	"name": "Suriname"
},
{
	"continent": "sa",
	"updated_at": "2016-02-09T09:30:11.105124Z",
	"code": "py",
	"name": "Paraguay"
},
{
	"continent": "sa",
	"updated_at": "2016-02-09T09:30:11.260289Z",
	"code": "pe",
	"name": "Peru"
},
{
	"continent": "sa",
	"updated_at": "2016-02-09T09:30:08.656207Z",
	"code": "gy",
	"name": "Guyana"
},
{
	"continent": "sa",
	"updated_at": "2016-02-09T09:30:08.677023Z",
	"code": "gf",
	"name": "French Guiana"
},
{
	"continent": "sa",
	"updated_at": "2016-02-09T09:30:10.120801Z",
	"code": "ec",
	"name": "Ecuador"
},
{
	"continent": "sa",
	"updated_at": "2016-02-09T09:30:14.133062Z",
	"code": "co",
	"name": "Colombia"
},
{
	"continent": "sa",
	"updated_at": "2016-02-09T09:30:14.190958Z",
	"code": "cl",
	"name": "Chile"
},
{
	"continent": "sa",
	"updated_at": "2016-02-09T09:30:10.400609Z",
	"code": "br",
	"name": "Brazil"
},
{
	"continent": "sa",
	"updated_at": "2016-02-09T09:30:10.32244Z",
	"code": "bo",
	"name": "Bolivia"
},
{
	"continent": "sa",
	"updated_at": "2016-02-09T09:30:11.795714Z",
	"code": "ar",
	"name": "Argentina"
}]